<head>
	
	<link rel="stylesheet" type="text/css" media="all" href="http://localhost/online/js/jsDatePick_ltr.min.css" />        
	<script type="text/javascript" src="http://localhost/online/js/jsDatePick.min.1.3.js"></script>   
	
	<script type="text/javascript">
	window.onload = function(){
		new JsDatePick({
			useMode:2,
			target:"inputField",
			dateFormat:"%Y-%m-%d"
			
		});
	};
	onclick = function(){
		new JsDatePick({
			useMode:2,
			target:"inputFieldend",
			dateFormat:"%Y-%m-%d"
			
		});
	};
	
	
</script>   

</head>
<body>
<div id="rightnow">
	<h3 class="report"><span>Sales</span>
	<br />
	</h3>
	<p class="youhave">
 <pre>    <?php echo form_open("http://localhost/online/index.php/admin/sales");?>Date Start  : <input type="date" size="12" id="inputField" name="dstart"/>              Date End  : <input type="date" size="12" id="inputFieldend" name="dend"/>                    <input type="submit"  value="Filter"/> <?php form_close(); ?></pre>       
	</p>
</div>	
	
</body>
